{
  "VERSIONS": [
    "latest",
    "1.7.1",
    "1.7.0",
    "1.6.1",
    "1.6.0",
    "1.5.1",
    "1.5.0",
    "1.4.2",
    "1.4.1",
    "1.4.0",
    "1.3.2",
    "1.3.1",
    "1.3.0",
    "1.2.1",
    "1.2.0",
    "1.1.0",
    "1.0.0",
    "0.4.0",
    "0.3.0"
  ],
  "COMPONENTS_BY_VERSION": {
    "latest": {
      "ncs": "1.7.1",
      "nrfxlib": "1.7.1",
      "zephyr": "2.6.99",
      "mcuboot": "1.7.99",
      "nrfx": "2.5",
      "tfm": "1.3.99",
      "matter": ""
    },
    "1.7.1": {
      "ncs": "1.7.1",
      "nrfxlib": "1.7.1",
      "zephyr": "2.6.99",
      "mcuboot": "1.7.99",
      "nrfx": "2.5",
      "tfm": "1.3.99",
      "matter": ""
    },
    "1.7.0": {
      "ncs": "1.7.0",
      "nrfxlib": "1.7.0",
      "zephyr": "2.6.99",
      "mcuboot": "1.7.99",
      "nrfx": "2.5",
      "tfm": "1.3.99",
      "matter": ""
    },
    "1.6.1": {
      "ncs": "1.6.1",
      "nrfxlib": "1.6.1",
      "zephyr": "2.6.0-rc1",
      "mcuboot": "1.7.99",
      "nrfx": "2.5"
    },
    "1.6.0": {
      "ncs": "1.6.0",
      "nrfxlib": "1.6.0",
      "zephyr": "2.6.0-rc1",
      "mcuboot": "1.7.99",
      "nrfx": "2.5"
    },
	"1.5.1": {
      "ncs": "1.5.1",
      "nrfxlib": "1.5.1",
      "zephyr": "2.4.99",
      "mcuboot": "1.7.99"
    },
	"1.5.0": {
      "ncs": "1.5.0",
      "nrfxlib": "1.5.0",
      "zephyr": "2.4.99",
      "mcuboot": "1.7.99"
    },
    "1.4.2": {
      "ncs": "1.4.2",
      "nrfxlib": "1.4.2",
      "zephyr": "2.4.0",
      "mcuboot": "1.6.99"
    },
    "1.4.1": {
      "ncs": "1.4.1",
      "nrfxlib": "1.4.1",
      "zephyr": "2.4.0",
      "mcuboot": "1.6.99"
    },
    "1.4.0": {
      "ncs": "1.4.0",
      "nrfxlib": "1.4.0",
      "zephyr": "2.4.0",
      "mcuboot": "1.6.99"
    },
    "1.3.2": {
      "ncs": "1.3.2",
      "nrfxlib": "1.3.1",
      "zephyr": "2.3.0-rc1",
      "mcuboot": "1.6.0-rc2"
    },
    "1.3.1": {
      "ncs": "1.3.1",
      "nrfxlib": "1.3.1",
      "zephyr": "2.3.0-rc1",
      "mcuboot": "1.6.0-rc2"
    },
    "1.3.0": {
      "ncs": "1.3.0",
      "nrfxlib": "1.3.0",
      "zephyr": "2.3.0-rc1",
      "mcuboot": "1.6.0-rc2"
    },
    "1.2.1": {
      "ncs": "1.2.1",
      "nrfxlib": "1.2.1",
      "zephyr": "2.1.99",
      "mcuboot": "1.4.99"
    },
    "1.2.0": {
      "ncs": "1.2.0",
      "nrfxlib": "1.2.0",
      "zephyr": "2.1.99",
      "mcuboot": "1.4.99"
    },
    "1.1.0": {
      "ncs": "1.1.0",
      "nrfxlib": "1.1.0",
      "zephyr": "2.0.99",
      "mcuboot": "1.4.99"
    },
    "1.0.0": {
      "ncs": "1.0.0",
      "nrfxlib": "1.0.0",
      "zephyr": "1.14.99",
      "mcuboot": "1.3.99"
    },
    "0.4.0": {
      "ncs": "0.4.0",
      "nrfxlib": "0.4.0",
      "zephyr": "1.14.99",
      "mcuboot": "1.3.99"
    },
    "0.3.0": {
      "ncs": "0.3.0",
      "nrfxlib": "0.3.0",
      "zephyr": "1.13.99",
      "mcuboot": "1.2.99"
    }
  }
}
